<?xml version="1.0" encoding="UTF-8" standalone="no"?>
<!-- Created with Inkscape (http://www.inkscape.org/) -->

<svg
   xmlns:dc="http://purl.org/dc/elements/1.1/"
   xmlns:cc="http://creativecommons.org/ns#"
   xmlns:rdf="http://www.w3.org/1999/02/22-rdf-syntax-ns#"
   xmlns:svg="http://www.w3.org/2000/svg"
   xmlns="http://www.w3.org/2000/svg"
   xmlns:sodipodi="http://sodipodi.sourceforge.net/DTD/sodipodi-0.dtd"
   xmlns:inkscape="http://www.inkscape.org/namespaces/inkscape"
   width="32"
   height="32"
   viewBox="0 0 32 32"
   id="svg4815"
   version="1.1"
   inkscape:version="0.91 r13725"
   sodipodi:docname="revolution32x32.svg"
   inkscape:export-filename="C:\Program Files\Autodesk\ApplicationPlugins\Ami.AcadM.Tools\Ami.AcadM.Tools\Resources\revolution32x32.png"
   inkscape:export-xdpi="90"
   inkscape:export-ydpi="90">
  <defs
     id="defs4817" />
  <sodipodi:namedview
     id="base"
     pagecolor="#ffffff"
     bordercolor="#666666"
     borderopacity="1.0"
     inkscape:pageopacity="0.0"
     inkscape:pageshadow="2"
     inkscape:zoom="31.678384"
     inkscape:cx="2.4639098"
     inkscape:cy="16.084994"
     inkscape:document-units="px"
     inkscape:current-layer="layer1"
     showgrid="false"
     units="px"
     inkscape:window-width="2560"
     inkscape:window-height="1388"
     inkscape:window-x="-8"
     inkscape:window-y="-8"
     inkscape:window-maximized="1"
     inkscape:snap-bbox="true"
     inkscape:bbox-paths="true"
     inkscape:bbox-nodes="true"
     inkscape:snap-bbox-edge-midpoints="true"
     inkscape:snap-bbox-midpoints="true"
     inkscape:object-paths="true"
     inkscape:snap-intersection-paths="true"
     inkscape:object-nodes="true"
     inkscape:snap-smooth-nodes="true"
     inkscape:snap-midpoints="true" />
  <metadata
     id="metadata4820">
    <rdf:RDF>
      <cc:Work
         rdf:about="">
        <dc:format>image/svg+xml</dc:format>
        <dc:type
           rdf:resource="http://purl.org/dc/dcmitype/StillImage" />
        <dc:title />
      </cc:Work>
    </rdf:RDF>
  </metadata>
  <g
     inkscape:label="Layer 1"
     inkscape:groupmode="layer"
     id="layer1"
     transform="translate(0,-1020.3622)">
    <path
       style="opacity:1;fill:none;fill-rule:evenodd;stroke:#000000;stroke-width:0.25;stroke-linecap:butt;stroke-linejoin:round;stroke-miterlimit:4;stroke-dasharray:none;stroke-opacity:1"
       d="m 27.035397,1037.8401 0,0 a 12.98934,12.98934 0 0 1 -12.98934,12.9893 12.98934,12.98934 0 0 1 -12.989338,-12.9893 12.98934,12.98934 0 0 1 12.989338,-12.9894"
       id="path4375"
       inkscape:connector-curvature="0" />
    <path
       style="opacity:1;fill:none;fill-rule:evenodd;stroke:#000000;stroke-width:0.25;stroke-linecap:round;stroke-linejoin:round;stroke-miterlimit:4;stroke-dasharray:none;stroke-opacity:1"
       d="m 21.296186,1037.8401 5.739211,0"
       id="path4373"
       inkscape:connector-curvature="0" />
    <path
       style="opacity:1;fill:none;fill-rule:evenodd;stroke:#000000;stroke-width:0.25;stroke-linecap:round;stroke-linejoin:round;stroke-miterlimit:4;stroke-dasharray:none;stroke-opacity:1"
       d="m 14.046057,1024.8507 c 0,0 0.03831,5.7055 0.04387,5.7833"
       id="path4188-7-2"
       inkscape:connector-curvature="0"
       sodipodi:nodetypes="cc" />
    <path
       style="opacity:1;fill:none;fill-rule:evenodd;stroke:#000000;stroke-width:0.25;stroke-linecap:butt;stroke-linejoin:round;stroke-miterlimit:4;stroke-dasharray:none;stroke-opacity:1"
       d="m 8.2840253,1026.2114 a 12.98934,12.98934 0 0 1 9.6662417,-4.3126"
       id="path4399"
       inkscape:connector-curvature="0" />
    <path
       style="opacity:1;fill:none;fill-rule:evenodd;stroke:#000000;stroke-width:0.25;stroke-linecap:butt;stroke-linejoin:round;stroke-miterlimit:4;stroke-dasharray:none;stroke-opacity:1"
       d="m 30.939607,1034.8882 0,0 a 12.98934,12.98934 0 0 1 -7.257924,11.6564"
       id="path4395"
       inkscape:connector-curvature="0" />
    <path
       style="opacity:1;fill:none;fill-rule:evenodd;stroke:#000000;stroke-width:0.25;stroke-linecap:round;stroke-linejoin:round;stroke-miterlimit:4;stroke-dasharray:none;stroke-opacity:1"
       d="m 17.950267,1021.8988 0,12.9894 12.98934,0"
       id="path4188-7-2-4"
       inkscape:connector-curvature="0" />
    <path
       style="opacity:1;fill:none;fill-rule:evenodd;stroke:#000000;stroke-width:0.25;stroke-linecap:butt;stroke-linejoin:round;stroke-miterlimit:4;stroke-dasharray:none;stroke-opacity:1"
       d="m 14.046057,1024.8507 3.90421,-2.9519"
       id="path4340"
       inkscape:connector-curvature="0" />
    <path
       style="opacity:1;fill:none;fill-rule:evenodd;stroke:#000000;stroke-width:0.25;stroke-linecap:butt;stroke-linejoin:round;stroke-miterlimit:4;stroke-dasharray:none;stroke-opacity:1"
       d="m 27.035397,1037.8401 3.90421,-2.9519"
       id="path4342"
       inkscape:connector-curvature="0" />
    <path
       style="opacity:1;fill:none;fill-rule:evenodd;stroke:#000000;stroke-width:0.25;stroke-linecap:butt;stroke-linejoin:round;stroke-miterlimit:4;stroke-dasharray:none;stroke-opacity:1"
       d="m 17.400505,1040.7213 3.895681,-2.8812"
       id="path4505"
       inkscape:connector-curvature="0" />
    <path
       style="opacity:1;fill:none;fill-rule:evenodd;stroke:#000000;stroke-width:0.25;stroke-linecap:butt;stroke-linejoin:round;stroke-miterlimit:4;stroke-dasharray:none;stroke-opacity:1"
       d="m 10.194589,1033.5153 3.895516,-2.8813"
       id="path4503"
       inkscape:connector-curvature="0" />
    <path
       style="opacity:1;fill:none;fill-rule:evenodd;stroke:#000000;stroke-width:0.25;stroke-linecap:butt;stroke-linejoin:round;stroke-miterlimit:4;stroke-dasharray:none;stroke-opacity:1"
       d="m 10.194589,1033.5153 0,7.206 7.205916,0"
       id="path4501"
       inkscape:connector-curvature="0" />
    <path
       style="opacity:1;fill:none;fill-rule:evenodd;stroke:#000000;stroke-width:0.25;stroke-linecap:butt;stroke-linejoin:round;stroke-miterlimit:4;stroke-dasharray:none;stroke-opacity:1"
       d="m 17.400505,1040.7213 0,0 a 7.2059156,7.2059156 0 0 1 -7.205916,7.2059 7.2059156,7.2059156 0 0 1 -7.205915,-7.2059 7.2059156,7.2059156 0 0 1 7.205915,-7.206"
       id="path4188-7-9-0"
       inkscape:connector-curvature="0" />
    <path
       style="opacity:1;fill:none;fill-rule:evenodd;stroke:#000000;stroke-width:0.25;stroke-linecap:butt;stroke-linejoin:round;stroke-miterlimit:4;stroke-dasharray:none;stroke-opacity:1"
       d="m 5.929161,1034.9134 3.8096863,-2.8172 c 1.5121157,-1.0734 2.9577167,-1.5152 4.3512577,-1.4622"
       id="path4519"
       inkscape:connector-curvature="0"
       sodipodi:nodetypes="ccc" />
    <path
       style="opacity:1;fill:none;fill-rule:evenodd;stroke:#000000;stroke-width:0.25;stroke-linecap:butt;stroke-linejoin:round;stroke-miterlimit:4;stroke-dasharray:none;stroke-opacity:1"
       d="m 14.419998,1046.5584 4.307759,-3.2032 c 1.420075,-1.0636 2.645505,-3.267 2.568429,-5.5151"
       id="path4521"
       inkscape:connector-curvature="0"
       sodipodi:nodetypes="ccc" />
    <path
       style="opacity:1;fill:#000000;fill-opacity:0;fill-rule:evenodd;stroke:none;stroke-width:0.25;stroke-linecap:round;stroke-linejoin:round;stroke-miterlimit:4;stroke-dasharray:none;stroke-opacity:1"
       d="m 9.7571999,1025.1746 c 1.8701341,-1.5781 4.1572821,-2.5752 6.6475991,-2.8981 0.31212,-0.041 0.584078,-0.067 0.604353,-0.059 0.02026,0.01 -0.653192,0.5361 -1.496589,1.174 l -1.533452,1.1597 -0.498805,0.03 c -1.168559,0.069 -2.298162,0.2615 -3.271691,0.5566 -0.2857087,0.087 -0.5352493,0.1567 -0.5545349,0.1558 -0.019294,-9e-4 0.027119,-0.054 0.1031198,-0.1183 z"
       id="path4204"
       inkscape:connector-curvature="0" />
    <path
       style="opacity:1;fill:#000000;fill-opacity:0;fill-rule:evenodd;stroke:none;stroke-width:0.25;stroke-linecap:round;stroke-linejoin:round;stroke-miterlimit:4;stroke-dasharray:none;stroke-opacity:1"
       d="m 10.472237,1037.0517 0.0011,-3.397 1.908252,-1.4049 c 1.049539,-0.7727 1.922597,-1.4359 1.940128,-1.4739 0.01754,-0.038 0.02697,-1.3553 0.02098,-2.9273 l -0.0109,-2.8582 1.650964,-1.2494 1.650964,-1.2495 0.02303,6.2539 c 0.01915,5.2012 0.03365,6.2668 0.08611,6.33 0.05795,0.07 0.562604,0.077 6.20805,0.088 l 6.144971,0.012 -1.552813,1.1746 -1.552814,1.1746 -2.904902,0.023 -2.904902,0.023 -1.94103,1.4394 -1.941031,1.4395 -3.41361,0 -3.413611,0 0.0011,-3.3971 z"
       id="path4210"
       inkscape:connector-curvature="0" />
    <path
       style="opacity:1;fill:#cccccc;fill-opacity:0;fill-rule:evenodd;stroke:none;stroke-width:0.25;stroke-linecap:round;stroke-linejoin:round;stroke-miterlimit:4;stroke-dasharray:none;stroke-opacity:1"
       d="m 10.472237,1037.0517 0.0011,-3.397 1.908252,-1.4049 c 1.049539,-0.7727 1.922597,-1.4359 1.940128,-1.4739 0.01754,-0.038 0.02697,-1.3553 0.02098,-2.9273 l -0.0109,-2.8582 1.650964,-1.2494 1.650964,-1.2495 0.02303,6.2539 c 0.01915,5.2012 0.03365,6.2668 0.08611,6.33 0.05795,0.07 0.562604,0.077 6.20805,0.088 l 6.144971,0.012 -1.552813,1.1746 -1.552814,1.1746 -2.904902,0.023 -2.904902,0.023 -1.94103,1.4394 -1.941031,1.4395 -3.41361,0 -3.413611,0 0.0011,-3.3971 z"
       id="path4212"
       inkscape:connector-curvature="0" />
    <path
       style="fill:none;fill-rule:evenodd;stroke:#000000;stroke-width:0.25;stroke-linecap:round;stroke-linejoin:round;stroke-opacity:1;stroke-miterlimit:4;stroke-dasharray:none"
       d="m 10.194589,1040.7213 7.755678,-5.8331"
       id="path3382"
       inkscape:connector-curvature="0" />
    <path
       style="opacity:1;fill:#0087ff;fill-opacity:0.63137255;fill-rule:evenodd;stroke:#000000;stroke-width:0.01116071;stroke-linecap:round;stroke-linejoin:round;stroke-miterlimit:4;stroke-dasharray:none;stroke-opacity:1"
       d="M 9.3943904,27.379737 C 6.6702844,27.038978 4.3585202,25.159627 3.5001278,22.587992 3.2345837,21.792456 3.1702872,21.357045 3.1702872,20.354337 c 0,-0.784026 0.014522,-0.982355 0.1013367,-1.383929 0.2133478,-0.986876 0.6104169,-1.905819 1.157393,-2.678571 0.3773609,-0.533125 1.1622679,-1.321732 1.6741802,-1.682072 1.0345067,-0.728198 2.3086286,-1.188559 3.5699442,-1.289878 l 0.3903577,-0.03136 0.01143,3.588707 0.01143,3.588707 3.588706,0.01143 3.588708,0.01143 -0.03136,0.390358 c -0.253991,3.161932 -2.514137,5.730196 -5.6282,6.395475 -0.337482,0.0721 -0.642532,0.09895 -1.25,0.110012 -0.4419644,0.0081 -0.8738841,0.0058 -0.9598216,-0.0049 z"
       id="path4184"
       inkscape:connector-curvature="0"
       transform="translate(0,1020.3622)" />
    <path
       style="opacity:1;fill:#0087ff;fill-opacity:0.63137255;fill-rule:evenodd;stroke:#000000;stroke-width:0.01116071;stroke-linecap:round;stroke-linejoin:round;stroke-miterlimit:4;stroke-dasharray:none;stroke-opacity:1"
       d="m 7.809569,13.356419 c 0.1248147,-0.127991 2.220067,-1.646775 2.577623,-1.868439 0.781066,-0.484216 1.65353,-0.830481 2.446318,-0.970897 0.484636,-0.08584 0.819982,-0.117592 0.772352,-0.07314 -0.107817,0.100632 -3.342283,2.47266 -3.44417,2.525816 -0.06667,0.03478 -0.2489249,0.0628 -0.4101587,0.06305 -0.3495564,5.47e-4 -0.9640027,0.09687 -1.4508929,0.22745 -0.5606292,0.150354 -0.5399821,0.146311 -0.4910714,0.09616 z"
       id="path4186"
       inkscape:connector-curvature="0"
       transform="translate(0,1020.3622)" />
    <path
       style="opacity:1;fill:#0087ff;fill-opacity:0.63137255;fill-rule:evenodd;stroke:#000000;stroke-width:0.01116071;stroke-linecap:round;stroke-linejoin:round;stroke-miterlimit:4;stroke-dasharray:none;stroke-opacity:1"
       d="M 12.742605,30.258802 C 7.7332824,29.743589 3.4738298,26.327536 1.8720444,21.540686 1.4152712,20.175644 1.2690534,19.305216 1.2377986,17.765051 1.2125309,16.519911 1.2612136,15.917162 1.4708441,14.87967 2.5137863,9.7179981 6.7412378,5.6651542 11.983676,4.8010531 12.489887,4.7176153 13.290291,4.6401403 13.646623,4.6400885 l 0.256696,-3.73e-5 8.9e-5,1.171875 c 3.8e-5,0.6445313 0.01328,1.8768145 0.02942,2.7384073 l 0.02935,1.5665325 -0.464689,0.02653 c -1.098682,0.06273 -2.246178,0.452055 -3.320689,1.126653 -0.2105378,0.13218 -1.3415672,0.949053 -2.5133985,1.815273 -2.3273609,1.720375 -2.7635925,2.095603 -3.3645342,2.894014 -1.0403904,1.382262 -1.5829587,3.26045 -1.4280759,4.943517 0.096222,1.045624 0.3133235,1.834819 0.7424975,2.699091 1.0756872,2.166223 3.09618,3.631591 5.5355608,4.014681 0.459104,0.0721 1.6378603,0.07223 2.0982143,2.23e-4 1.029568,-0.161022 2.091691,-0.55955 2.924107,-1.09718 0.159598,-0.103079 1.314732,-0.947885 2.566964,-1.877345 2.45424,-1.821644 2.822987,-2.139624 3.357143,-2.894959 0.749366,-1.059658 1.24704,-2.438944 1.335387,-3.700982 l 0.03047,-0.435268 2.722718,0 2.722717,0 -0.03051,0.479911 c -0.121425,1.909905 -0.534076,3.469941 -1.349138,5.100446 -0.638669,1.277636 -1.383846,2.310747 -2.40169,3.329693 -2.142428,2.144748 -4.842507,3.420894 -7.8762,3.72255 -0.541572,0.05385 -1.962115,0.05106 -2.506431,-0.0049 l 0,8e-6 z"
       id="path4188"
       inkscape:connector-curvature="0"
       transform="translate(0,1020.3622)" />
    <path
       style="opacity:1;fill:#0087ff;fill-opacity:0.63137255;fill-rule:evenodd;stroke:#000000;stroke-width:0.01116071;stroke-linecap:round;stroke-linejoin:round;stroke-miterlimit:4;stroke-dasharray:none;stroke-opacity:1"
       d="m 16.135462,24.718393 c 0,-0.01203 0.09273,-0.160139 0.206062,-0.329127 0.654569,-0.976 1.169207,-2.527079 1.181004,-3.559455 0.0017,-0.15102 0.01679,-0.30796 0.03348,-0.348755 0.02761,-0.06748 3.503622,-2.671362 3.566101,-2.671362 0.06397,0 -0.03885,0.869835 -0.15898,1.344916 -0.31877,1.260642 -0.927806,2.3674 -1.776578,3.228453 -0.168056,0.170487 -0.898189,0.750743 -1.62252,1.289457 -0.72433,0.538715 -1.342076,0.999341 -1.372768,1.023615 -0.03069,0.02427 -0.0558,0.03429 -0.0558,0.02226 z"
       id="path4190"
       inkscape:connector-curvature="0"
       transform="translate(0,1020.3622)" />
    <path
       style="opacity:1;fill:#0087ff;fill-opacity:0.63137255;fill-rule:evenodd;stroke:#000000;stroke-width:0.01116071;stroke-linecap:round;stroke-linejoin:round;stroke-miterlimit:4;stroke-dasharray:none;stroke-opacity:1"
       d="m 24.349748,25.648964 c 0,-0.01017 0.140053,-0.206175 0.311229,-0.435574 0.614424,-0.82341 1.303657,-2.093942 1.667211,-3.073339 0.505987,-1.363103 0.833414,-3.000968 0.834396,-4.173833 l 3.37e-4,-0.40206 1.772895,-1.339285 c 0.975093,-0.736608 1.791744,-1.347045 1.814781,-1.356527 0.02568,-0.01057 0.03006,0.179366 0.01132,0.491071 -0.177189,2.94668 -1.45787,5.869377 -3.50355,7.995601 -0.585406,0.608455 -1.229785,1.176641 -1.792546,1.580593 -0.399681,0.286892 -1.116071,0.744783 -1.116071,0.713353 z"
       id="path4192"
       inkscape:connector-curvature="0"
       transform="translate(0,1020.3622)" />
    <path
       style="opacity:1;fill:#0087ff;fill-opacity:0.63137255;fill-rule:evenodd;stroke:#000000;stroke-width:0.01116071;stroke-linecap:round;stroke-linejoin:round;stroke-miterlimit:4;stroke-dasharray:none;stroke-opacity:1"
       d="M 9.2827833,5.0627871 C 11.069948,3.3704516 13.64448,2.1586282 16.202426,1.8057357 c 0.653265,-0.090124 1.303728,-0.131259 1.25,-0.079049 -0.04985,0.048444 -3.314145,2.5162055 -3.392507,2.5646901 -0.02737,0.016934 -0.365724,0.051821 -0.751898,0.077526 -1.304249,0.086815 -2.254869,0.2686977 -3.4002377,0.6505699 -0.3928572,0.1309807 -0.7544643,0.2513796 -0.8035714,0.2675532 -0.049107,0.016173 0.03125,-0.084734 0.1785714,-0.224238 z"
       id="path4201"
       inkscape:connector-curvature="0"
       transform="translate(0,1020.3622)" />
    <path
       style="opacity:1;fill:#b3b3b3;fill-opacity:1;fill-rule:evenodd;stroke:#000000;stroke-width:0.00789182;stroke-linecap:round;stroke-linejoin:round;stroke-miterlimit:4;stroke-dasharray:none;stroke-opacity:1"
       d="m 10.330473,16.656603 0,-3.4267 1.933495,-1.4313 1.933495,-1.431299 0,-2.908224 0,-2.9082233 1.799334,-1.3598361 1.799334,-1.3598361 0.008,6.3038606 c 0.0076,5.9721909 0.0051,6.3065899 -0.04735,6.3557369 -0.03043,0.02853 -1.696029,1.284284 -3.70134,2.790562 -2.00531,1.506277 -3.663776,2.752922 -3.685478,2.770322 -0.03152,0.02527 -0.03946,-0.657876 -0.03946,-3.395063 z"
       id="path3363"
       inkscape:connector-curvature="0"
       transform="translate(0,1020.3622)" />
    <path
       style="opacity:1;fill:#b3b3b3;fill-opacity:1;fill-rule:evenodd;stroke:#000000;stroke-width:0.00789182;stroke-linecap:round;stroke-linejoin:round;stroke-miterlimit:4;stroke-dasharray:none;stroke-opacity:1"
       d="m 10.617209,20.220508 c 0.0072,-0.0071 1.668067,-1.257153 3.690739,-2.777905 l 3.677587,-2.765006 6.242427,-1.4e-5 c 3.433335,-8e-6 6.242427,0.0063 6.242427,0.01396 0,0.0077 -0.780893,0.604307 -1.735318,1.325826 l -1.735318,1.311851 -2.869449,0 -2.86945,0 -1.962883,1.452094 -1.962882,1.452094 -3.365517,0 c -1.851034,0 -3.359597,-0.0058 -3.352363,-0.0129 z"
       id="path3365"
       inkscape:connector-curvature="0"
       transform="translate(0,1020.3622)" />
  </g>
</svg>
