^C:\TEMP\03_SRC\ANDRITZ.PDMS.DRAFT.MULTIPDFPRINT\TRUNK\MULTIPDFPRINTCONTROL.RESX
C:\TEMP\03_SRC\ANDRITZ.PDMS.DRAFT.MULTIPDFPRINT\TRUNK\OBJ\RELEASE\ANDRITZ.PDMS.DRAFT.MULTIPDFPRINT.MULTIPDFPRINTCONTROL.RESOURCES
^C:\TEMP\03_SRC\AMV.PDMS.DRAFT.MULTIPDFPRINT\TRUNK\AMV.PDMS.DRAFT.MULTIPDFPRINT\MULTIPDFPRINTCONTROL.RESX
C:\TEMP\03_SRC\AMV.PDMS.DRAFT.MULTIPDFPRINT\TRUNK\AMV.PDMS.DRAFT.MULTIPDFPRINT\OBJ\RELEASE\AMV.PDMS.DRAFT.MULTIPDFPRINT.MULTIPDFPRINTCONTROL.RESOURCES
