^C:\TEMP\03_SRC\ANDRITZ.PDMS.DRAFT.MULTIPDFPRINT\TRUNK\MULTIPDFPRINTCONTROL.RESX
C:\WINDOWS\MICROSOFT.NET\FRAMEWORK64\V2.0.50727\MSCORWKS.DLL
C:\WINDOWS\MICROSOFT.NET\FRAMEWORK64\V4.0.30319\CLR.DLL
C:\PROGRAM FILES (X86)\MICROSOFT SDKS\WINDOWS\V7.0A\BIN\RESGEN.EXE.CONFIG
C:\PROGRAM FILES (X86)\MICROSOFT SDKS\WINDOWS\V7.0A\BIN\RESGEN.EXE
C:\WINDOWS\MICROSOFT.NET\FRAMEWORK64\V2.0.50727\CONFIG\MACHINE.CONFIG
C:\WINDOWS\MICROSOFT.NET\FRAMEWORK64\V2.0.50727\CONFIG\SECURITY.CONFIG
C:\WINDOWS\MICROSOFT.NET\FRAMEWORK64\V2.0.50727\CONFIG\SECURITY.CONFIG.CCH
C:\WINDOWS\MICROSOFT.NET\FRAMEWORK64\V2.0.50727\CONFIG\ENTERPRISESEC.CONFIG
C:\WINDOWS\MICROSOFT.NET\FRAMEWORK64\V2.0.50727\CONFIG\ENTERPRISESEC.CONFIG.CCH
C:\WINDOWS\ASSEMBLY\NATIVEIMAGES_V2.0.50727_64\INDEX74A.DAT
C:\WINDOWS\SYSTEM32\L_INTL.NLS
C:\WINDOWS\ASSEMBLY\GAC_64\MSCORLIB\2.0.0.0__B77A5C561934E089\SORTTBLS.NLP
C:\WINDOWS\ASSEMBLY\GAC_64\MSCORLIB\2.0.0.0__B77A5C561934E089\SORTKEY.NLP
C:\WINDOWS\ASSEMBLY\PUBPOL57.DAT
C:\TEMP\03_SRC\AMV.PDMS.RUNPMLCOMMAND\AMV.PDMS.RUNPMLCOMMAND\BIN\RELEASE\AMV.PDMS.PMLCOMMAND.DLL
C:\TEMP\03_SRC\ANDRITZ.PDMS.DRAFT.MULTIPDFPRINT\TRUNK\AVEVA.APPLICATIONFRAMEWORK.DLL
C:\WINDOWS\SYSTEM32\RSAENH.DLL
C:\TEMP\03_SRC\ANDRITZ.PDMS.DRAFT.MULTIPDFPRINT\TRUNK\AVEVA.APPLICATIONFRAMEWORK.PRESENTATION.DLL
C:\TEMP\03_SRC\ANDRITZ.PDMS.DRAFT.MULTIPDFPRINT\TRUNK\AVEVA.PDMS.DATABASE.DLL
C:\TEMP\03_SRC\ANDRITZ.PDMS.DRAFT.MULTIPDFPRINT\TRUNK\AVEVA.PDMS.GEOMETRY.DLL
C:\TEMP\03_SRC\ANDRITZ.PDMS.DRAFT.MULTIPDFPRINT\TRUNK\AVEVA.PDMS.GRAPHICS.DLL
C:\TEMP\03_SRC\ANDRITZ.PDMS.DRAFT.MULTIPDFPRINT\TRUNK\AVEVA.PDMS.SHARED.DLL
C:\TEMP\03_SRC\ANDRITZ.PDMS.DRAFT.MULTIPDFPRINT\TRUNK\AVEVA.PDMS.UTILITIES.DLL
C:\WINDOWS\MICROSOFT.NET\FRAMEWORK\V2.0.50727\MSCORLIB.DLL
C:\TEMP\03_SRC\ANDRITZ.PDMS.DRAFT.MULTIPDFPRINT\TRUNK\PDMSFILTERS.DLL
C:\PROGRAM FILES (X86)\REFERENCE ASSEMBLIES\MICROSOFT\FRAMEWORK\V3.5\SYSTEM.CORE.DLL
C:\PROGRAM FILES (X86)\REFERENCE ASSEMBLIES\MICROSOFT\FRAMEWORK\V3.5\SYSTEM.DATA.DATASETEXTENSIONS.DLL
C:\WINDOWS\MICROSOFT.NET\FRAMEWORK\V2.0.50727\SYSTEM.DATA.DLL
C:\WINDOWS\MICROSOFT.NET\FRAMEWORK\V2.0.50727\SYSTEM.DLL
C:\WINDOWS\MICROSOFT.NET\FRAMEWORK\V2.0.50727\SYSTEM.DRAWING.DLL
C:\WINDOWS\MICROSOFT.NET\FRAMEWORK\V2.0.50727\SYSTEM.WINDOWS.FORMS.DLL
C:\WINDOWS\MICROSOFT.NET\FRAMEWORK\V2.0.50727\SYSTEM.XML.DLL
C:\PROGRAM FILES (X86)\REFERENCE ASSEMBLIES\MICROSOFT\FRAMEWORK\V3.5\SYSTEM.XML.LINQ.DLL
^C:\TEMP\03_SRC\AMV.PDMS.DRAFT.MULTIPDFPRINT\TRUNK\AMV.PDMS.DRAFT.MULTIPDFPRINT\MULTIPDFPRINTCONTROL.RESX
C:\WINDOWS\MICROSOFT.NET\FRAMEWORK64\V2.0.50727\MSCORWKS.DLL
C:\WINDOWS\MICROSOFT.NET\FRAMEWORK64\V4.0.30319\CLR.DLL
C:\PROGRAM FILES (X86)\MICROSOFT SDKS\WINDOWS\V7.0A\BIN\RESGEN.EXE.CONFIG
C:\PROGRAM FILES (X86)\MICROSOFT SDKS\WINDOWS\V7.0A\BIN\RESGEN.EXE
C:\WINDOWS\MICROSOFT.NET\FRAMEWORK64\V2.0.50727\CONFIG\MACHINE.CONFIG
C:\WINDOWS\MICROSOFT.NET\FRAMEWORK64\V2.0.50727\CONFIG\SECURITY.CONFIG
C:\WINDOWS\MICROSOFT.NET\FRAMEWORK64\V2.0.50727\CONFIG\SECURITY.CONFIG.CCH
C:\WINDOWS\MICROSOFT.NET\FRAMEWORK64\V2.0.50727\CONFIG\ENTERPRISESEC.CONFIG
C:\WINDOWS\MICROSOFT.NET\FRAMEWORK64\V2.0.50727\CONFIG\ENTERPRISESEC.CONFIG.CCH
C:\WINDOWS\ASSEMBLY\NATIVEIMAGES_V2.0.50727_64\INDEX97F.DAT
C:\WINDOWS\SYSTEM32\L_INTL.NLS
C:\WINDOWS\ASSEMBLY\GAC_64\MSCORLIB\2.0.0.0__B77A5C561934E089\SORTTBLS.NLP
C:\WINDOWS\ASSEMBLY\GAC_64\MSCORLIB\2.0.0.0__B77A5C561934E089\SORTKEY.NLP
C:\WINDOWS\ASSEMBLY\PUBPOL57.DAT
C:\TEMP\03_SRC\AMV.PDMS.DRAFT.MULTIPDFPRINT\TRUNK\AMV.PDMS.PMLCOMMAND\BIN\DEBUG\AMV.PDMS.PML.DLL
C:\TEMP\03_SRC\AMV.PDMS.DRAFT.MULTIPDFPRINT\TRUNK\AMV.PDMS.DRAFT.MULTIPDFPRINT\AVEVA.APPLICATIONFRAMEWORK.DLL
C:\WINDOWS\SYSTEM32\RSAENH.DLL
C:\TEMP\03_SRC\AMV.PDMS.DRAFT.MULTIPDFPRINT\TRUNK\AMV.PDMS.DRAFT.MULTIPDFPRINT\AVEVA.APPLICATIONFRAMEWORK.PRESENTATION.DLL
C:\TEMP\03_SRC\AMV.PDMS.DRAFT.MULTIPDFPRINT\TRUNK\AMV.PDMS.DRAFT.MULTIPDFPRINT\AVEVA.PDMS.DATABASE.DLL
C:\TEMP\03_SRC\AMV.PDMS.DRAFT.MULTIPDFPRINT\TRUNK\AMV.PDMS.DRAFT.MULTIPDFPRINT\AVEVA.PDMS.GEOMETRY.DLL
C:\TEMP\03_SRC\AMV.PDMS.DRAFT.MULTIPDFPRINT\TRUNK\AMV.PDMS.DRAFT.MULTIPDFPRINT\AVEVA.PDMS.GRAPHICS.DLL
C:\TEMP\03_SRC\AMV.PDMS.DRAFT.MULTIPDFPRINT\TRUNK\AMV.PDMS.DRAFT.MULTIPDFPRINT\AVEVA.PDMS.SHARED.DLL
C:\TEMP\03_SRC\AMV.PDMS.DRAFT.MULTIPDFPRINT\TRUNK\AMV.PDMS.DRAFT.MULTIPDFPRINT\AVEVA.PDMS.UTILITIES.DLL
C:\WINDOWS\MICROSOFT.NET\FRAMEWORK\V2.0.50727\MSCORLIB.DLL
C:\TEMP\03_SRC\AMV.PDMS.DRAFT.MULTIPDFPRINT\TRUNK\AMV.PDMS.DRAFT.MULTIPDFPRINT\PDMSFILTERS.DLL
C:\PROGRAM FILES (X86)\REFERENCE ASSEMBLIES\MICROSOFT\FRAMEWORK\V3.5\SYSTEM.CORE.DLL
C:\PROGRAM FILES (X86)\REFERENCE ASSEMBLIES\MICROSOFT\FRAMEWORK\V3.5\SYSTEM.DATA.DATASETEXTENSIONS.DLL
C:\WINDOWS\MICROSOFT.NET\FRAMEWORK\V2.0.50727\SYSTEM.DATA.DLL
C:\WINDOWS\MICROSOFT.NET\FRAMEWORK\V2.0.50727\SYSTEM.DLL
C:\WINDOWS\MICROSOFT.NET\FRAMEWORK\V2.0.50727\SYSTEM.DRAWING.DLL
C:\WINDOWS\MICROSOFT.NET\FRAMEWORK\V2.0.50727\SYSTEM.WINDOWS.FORMS.DLL
C:\WINDOWS\MICROSOFT.NET\FRAMEWORK\V2.0.50727\SYSTEM.XML.DLL
C:\PROGRAM FILES (X86)\REFERENCE ASSEMBLIES\MICROSOFT\FRAMEWORK\V3.5\SYSTEM.XML.LINQ.DLL
C:\WINDOWS\ASSEMBLY\GAC_MSIL\OFFICE\14.0.0.0__71E9BCE111E9429C\OFFICE.DLL
C:\WINDOWS\ASSEMBLY\GAC_MSIL\MICROSOFT.OFFICE.INTEROP.EXCEL\14.0.0.0__71E9BCE111E9429C\MICROSOFT.OFFICE.INTEROP.EXCEL.DLL
C:\WINDOWS\ASSEMBLY\GAC_MSIL\MICROSOFT.VBE.INTEROP\14.0.0.0__71E9BCE111E9429C\MICROSOFT.VBE.INTEROP.DLL
