^C:\TEMP\03_SRC\AMV.PDMS.RUNPMLCOMMAND\AMV.PDMS.RUNPMLCOMMAND\MY PROJECT\RESOURCES.RESX
C:\TEMP\03_SRC\AMV.PDMS.RUNPMLCOMMAND\AMV.PDMS.RUNPMLCOMMAND\OBJ\RELEASE\AMV.PDMS.RUNPMLCOMMAND.RESOURCES.RESOURCES
C:\TEMP\03_SRC\AMV.PDMS.RUNPMLCOMMAND\AMV.PDMS.RUNPMLCOMMAND\OBJ\RELEASE\AMV.PDMS.PMLCOMMAND.RESOURCES.RESOURCES
