^C:\TEMP\03_SRC\AMV.PDMS.RUNPMLCOMMAND\AMV.PDMS.RUNPMLCOMMAND\MY PROJECT\RESOURCES.RESX
C:\WINDOWS\MICROSOFT.NET\FRAMEWORK64\V2.0.50727\MSCORWKS.DLL
C:\WINDOWS\MICROSOFT.NET\FRAMEWORK64\V4.0.30319\CLR.DLL
C:\PROGRAM FILES (X86)\MICROSOFT SDKS\WINDOWS\V7.0A\BIN\RESGEN.EXE.CONFIG
C:\PROGRAM FILES (X86)\MICROSOFT SDKS\WINDOWS\V7.0A\BIN\RESGEN.EXE
C:\WINDOWS\MICROSOFT.NET\FRAMEWORK64\V2.0.50727\CONFIG\MACHINE.CONFIG
C:\WINDOWS\MICROSOFT.NET\FRAMEWORK64\V2.0.50727\CONFIG\SECURITY.CONFIG
C:\WINDOWS\MICROSOFT.NET\FRAMEWORK64\V2.0.50727\CONFIG\SECURITY.CONFIG.CCH
C:\WINDOWS\MICROSOFT.NET\FRAMEWORK64\V2.0.50727\CONFIG\ENTERPRISESEC.CONFIG
C:\WINDOWS\MICROSOFT.NET\FRAMEWORK64\V2.0.50727\CONFIG\ENTERPRISESEC.CONFIG.CCH
C:\WINDOWS\ASSEMBLY\NATIVEIMAGES_V2.0.50727_64\INDEX74A.DAT
C:\WINDOWS\SYSTEM32\L_INTL.NLS
C:\WINDOWS\ASSEMBLY\GAC_64\MSCORLIB\2.0.0.0__B77A5C561934E089\SORTTBLS.NLP
C:\WINDOWS\ASSEMBLY\GAC_64\MSCORLIB\2.0.0.0__B77A5C561934E089\SORTKEY.NLP
C:\WINDOWS\ASSEMBLY\PUBPOL57.DAT
C:\AVEVA\PLANT\PDMS12.1.SP4\AVEVA.PDMS.UTILITIES.DLL
C:\WINDOWS\SYSTEM32\RSAENH.DLL
C:\AVEVA\PLANT\PDMS12.1.SP4\PMLNET.DLL
C:\PROGRAM FILES (X86)\REFERENCE ASSEMBLIES\MICROSOFT\FRAMEWORK\V3.5\SYSTEM.CORE.DLL
C:\PROGRAM FILES (X86)\REFERENCE ASSEMBLIES\MICROSOFT\FRAMEWORK\V3.5\SYSTEM.DATA.DATASETEXTENSIONS.DLL
C:\WINDOWS\MICROSOFT.NET\FRAMEWORK\V2.0.50727\SYSTEM.DATA.DLL
C:\WINDOWS\MICROSOFT.NET\FRAMEWORK\V2.0.50727\SYSTEM.DLL
C:\WINDOWS\MICROSOFT.NET\FRAMEWORK\V2.0.50727\SYSTEM.XML.DLL
C:\PROGRAM FILES (X86)\REFERENCE ASSEMBLIES\MICROSOFT\FRAMEWORK\V3.5\SYSTEM.XML.LINQ.DLL
C:\AVEVA\PLANT\PDMS12.1.SP4\AVEVA.APPLICATIONFRAMEWORK.DLL
C:\AVEVA\PLANT\PDMS12.1.SP4\AVEVA.APPLICATIONFRAMEWORK.PRESENTATION.DLL
C:\WINDOWS\MICROSOFT.NET\FRAMEWORK\V2.0.50727\SYSTEM.WINDOWS.FORMS.DLL
