^W:\SRC\AMI-DIRECTORY-HYPERLINKS\AMI-DIRECTORY-HYPERLINKS\TEMP\DIRHYPERLINK\DIRHYPERLINK\FORM1.RESX|W:\SRC\AMI-DIRECTORY-HYPERLINKS\AMI-DIRECTORY-HYPERLINKS\TEMP\DIRHYPERLINK\DIRHYPERLINK\PROPERTIES\RESOURCES.RESX
W:\SRC\AMI-DIRECTORY-HYPERLINKS\AMI-DIRECTORY-HYPERLINKS\TEMP\DIRHYPERLINK\DIRHYPERLINK\OBJ\X86\DEBUG\DIRHYPERLINK.FORM1.RESOURCES
W:\SRC\AMI-DIRECTORY-HYPERLINKS\AMI-DIRECTORY-HYPERLINKS\TEMP\DIRHYPERLINK\DIRHYPERLINK\OBJ\X86\DEBUG\DIRHYPERLINK.PROPERTIES.RESOURCES.RESOURCES
